5,EURAUD,2020-10-14 00:45:00,PUT
5,EURJPY,2020-10-14 00:50:00,PUT
5,EURJPY,2020-10-14 00:55:00,PUT
30,GBPUSD,2020-10-14 01:30:00,CALL
15,AUDUSD,2020-10-14 01:45:00,CALL
15,EURAUD,2020-10-14 01:45:00,PUT
15,AUDCHF,2020-10-14 01:45:00,CALL
5,EURGBP,2020-10-14 01:55:00,PUT
30,EURGBP,2020-10-14 02:30:00,PUT
30,GBPCHF,2020-10-14 02:30:00,CALL
5,AUDUSD,2020-10-14 03:05:00,PUT
15,GBPCHF,2020-10-14 04:45:00,PUT
5,GBPCHF,2020-10-14 05:10:00,CALL
5,EURUSD,2020-10-14 05:40:00,PUT
5,EURJPY,2020-10-14 05:40:00,PUT
5,USDNOK,2020-10-14 05:45:00,PUT
30,GBPCAD,2020-10-14 06:00:00,PUT
5,GBPCAD,2020-10-14 06:00:00,PUT
5,USDJPY,2020-10-14 06:10:00,PUT
5,CADJPY,2020-10-14 06:30:00,PUT
5,AUDCAD,2020-10-14 06:40:00,PUT
5,GBPCHF,2020-10-14 07:20:00,PUT
5,EURCHF,2020-10-14 07:30:00,PUT
5,AUDNZD,2020-10-14 07:55:00,CALL
5,EURCHF,2020-10-14 07:55:00,PUT
15,USDNOK,2020-10-14 08:45:00,PUT
5,EURCHF,2020-10-14 11:45:00,PUT
5,GBPJPY,2020-10-14 12:30:00,PUT
5,AUDUSD,2020-10-14 12:40:00,PUT
5,AUDNZD,2020-10-14 13:30:00,CALL
5,GBPJPY,2020-10-14 15:30:00,PUT
5,EURNZD,2020-10-14 15:40:00,CALL
5,GBPCAD,2020-10-14 15:40:00,PUT
5,AUDJPY,2020-10-14 16:20:00,CALL
15,USDCAD,2020-10-14 17:00:00,PUT